{
  "v": "5.7.11",
  "fr": 29.9700012207031,
  "ip": 0,
  "op": 60.0000024438501,
  "w": 300,
  "h": 100,
  "nm": "main_layer",
  "ddd": 0,
  "assets": [],
  "fonts": {
    "list": [
      {
        "fName": "Montserrat-Bold",
        "fFamily": "Montserrat",
        "fStyle": "Bold",
        "ascent": 74.1989135742188
      }
    ]
  },
  "layers": [
    {
      "ddd": 0,
      "ind": 1,
      "ty": 4,
      "nm": "small_circle",
      "sr": 1,
      "ks": {
        "o": { "a": 0, "k": 100, "ix": 11 },
        "r": { "a": 0, "k": 0, "ix": 10 },
        "p": { "a": 0, "k": [47.812, 49.979, 0], "ix": 2, "l": 2 },
        "a": { "a": 0, "k": [-49.375, 5.875, 0], "ix": 1, "l": 2 },
        "s": {
          "a": 1,
          "k": [
            {
              "i": { "x": [0.833, 0.833, 0.833], "y": [0.833, 0.833, 0.833] },
              "o": { "x": [0.167, 0.167, 0.167], "y": [0.167, 0.167, 0.167] },
              "t": 0,
              "s": [80, 80, 100]
            },
            {
              "i": { "x": [0.833, 0.833, 0.833], "y": [0.833, 0.833, 0.833] },
              "o": { "x": [0.167, 0.167, 0.167], "y": [0.167, 0.167, 0.167] },
              "t": 30,
              "s": [100, 100, 100]
            },
            { "t": 60.0000024438501, "s": [80, 80, 100] }
          ],
          "ix": 6,
          "l": 2
        }
      },
      "ao": 0,
      "shapes": [
        {
          "ty": "gr",
          "it": [
            {
              "d": 1,
              "ty": "el",
              "s": { "a": 0, "k": [45.25, 45.25], "ix": 2 },
              "p": { "a": 0, "k": [0, 0], "ix": 3 },
              "nm": "Ellipse Path 1",
              "mn": "ADBE Vector Shape - Ellipse",
              "hd": false
            },
            {
              "ty": "fl",
              "c": { "a": 0, "k": [0.882352941176, 0.117647058824, 0.160784313725, 1], "ix": 4 },
              "o": { "a": 0, "k": 100, "ix": 5 },
              "r": 1,
              "bm": 0,
              "nm": "Fill 1",
              "mn": "ADBE Vector Graphic - Fill",
              "hd": false
            },
            {
              "ty": "tr",
              "p": { "a": 0, "k": [-49.375, 5.875], "ix": 2 },
              "a": { "a": 0, "k": [0, 0], "ix": 1 },
              "s": { "a": 0, "k": [83.373, 83.373], "ix": 3 },
              "r": { "a": 0, "k": 0, "ix": 6 },
              "o": { "a": 0, "k": 100, "ix": 7 },
              "sk": { "a": 0, "k": 0, "ix": 4 },
              "sa": { "a": 0, "k": 0, "ix": 5 },
              "nm": "Transform"
            }
          ],
          "nm": "Ellipse 1",
          "np": 3,
          "cix": 2,
          "bm": 0,
          "ix": 1,
          "mn": "ADBE Vector Group",
          "hd": false
        }
      ],
      "ip": 0,
      "op": 60.0000024438501,
      "st": 0,
      "bm": 0
    },
    {
      "ddd": 0,
      "ind": 2,
      "ty": 4,
      "nm": "big_circle",
      "sr": 1,
      "ks": {
        "o": {
          "a": 1,
          "k": [
            {
              "i": { "x": [0.833], "y": [0.833] },
              "o": { "x": [0.167], "y": [0.167] },
              "t": 0,
              "s": [50]
            },
            {
              "i": { "x": [0.833], "y": [0.833] },
              "o": { "x": [0.167], "y": [0.167] },
              "t": 22.5,
              "s": [0]
            },
            { "t": 45.0000018328876, "s": [50] }
          ],
          "ix": 11
        },
        "r": { "a": 0, "k": 0, "ix": 10 },
        "p": { "a": 0, "k": [47.812, 49.979, 0], "ix": 2, "l": 2 },
        "a": { "a": 0, "k": [-46.667, 5.042, 0], "ix": 1, "l": 2 },
        "s": {
          "a": 1,
          "k": [
            {
              "i": { "x": [0.833, 0.833, 0.833], "y": [0.833, 0.833, 0.833] },
              "o": { "x": [0.167, 0.167, 0.167], "y": [0.167, 0.167, 0.167] },
              "t": 0,
              "s": [120, 120, 100]
            },
            {
              "i": { "x": [0.833, 0.833, 0.833], "y": [0.833, 0.833, 0.833] },
              "o": { "x": [0.167, 0.167, 0.167], "y": [0.167, 0.167, 0.167] },
              "t": 22.5,
              "s": [150, 150, 100]
            },
            { "t": 45.0000018328876, "s": [120, 120, 100] }
          ],
          "ix": 6,
          "l": 2
        }
      },
      "ao": 0,
      "shapes": [
        {
          "ty": "gr",
          "it": [
            {
              "d": 1,
              "ty": "el",
              "s": { "a": 0, "k": [45.25, 45.25], "ix": 2 },
              "p": { "a": 0, "k": [0, 0], "ix": 3 },
              "nm": "Ellipse Path 1",
              "mn": "ADBE Vector Shape - Ellipse",
              "hd": false
            },
            {
              "ty": "fl",
              "c": { "a": 0, "k": [0.882352941176, 0.117647058824, 0.160784313725, 1], "ix": 4 },
              "o": { "a": 0, "k": 100, "ix": 5 },
              "r": 1,
              "bm": 0,
              "nm": "Fill 1",
              "mn": "ADBE Vector Graphic - Fill",
              "hd": false
            },
            {
              "ty": "tr",
              "p": { "a": 0, "k": [-46.667, 5.042], "ix": 2 },
              "a": { "a": 0, "k": [0, 0], "ix": 1 },
              "s": { "a": 0, "k": [83.373, 83.373], "ix": 3 },
              "r": { "a": 0, "k": 0, "ix": 6 },
              "o": { "a": 0, "k": 100, "ix": 7 },
              "sk": { "a": 0, "k": 0, "ix": 4 },
              "sa": { "a": 0, "k": 0, "ix": 5 },
              "nm": "Transform"
            }
          ],
          "nm": "Ellipse 1",
          "np": 3,
          "cix": 2,
          "bm": 0,
          "ix": 1,
          "mn": "ADBE Vector Group",
          "hd": false
        }
      ],
      "ip": 0,
      "op": 60.0000024438501,
      "st": 0,
      "bm": 0
    },
    {
      "ddd": 0,
      "ind": 3,
      "ty": 5,
      "nm": "text",
      "sr": 1,
      "ks": {
        "o": { "a": 0, "k": 100, "ix": 11 },
        "r": { "a": 0, "k": 0, "ix": 10 },
        "p": { "a": 0, "k": [191.879, 49.979, 0], "ix": 2, "l": 2 },
        "a": { "a": 0, "k": [94.879, -28.198, 0], "ix": 1, "l": 2 },
        "s": { "a": 0, "k": [100, 100, 100], "ix": 6, "l": 2 }
      },
      "ao": 0,
      "t": {
        "d": {
          "k": [
            {
              "s": {
                "s": 80,
                "f": "Montserrat-Bold",
                "t": "LIVE",
                "ca": 0,
                "j": 0,
                "tr": 0,
                "lh": 96,
                "ls": 0,
                "fc": [0.882, 0.118, 0.161]
              },
              "t": 0
            }
          ]
        },
        "p": {},
        "m": { "g": 1, "a": { "a": 0, "k": [0, 0], "ix": 2 } },
        "a": []
      },
      "ip": 0,
      "op": 60.0000024438501,
      "st": 0,
      "bm": 0
    }
  ],
  "markers": [],
  "chars": [
    {
      "ch": "L",
      "size": 80,
      "style": "Bold",
      "w": 60.4,
      "data": {
        "shapes": [
          {
            "ty": "gr",
            "it": [
              {
                "ind": 0,
                "ty": "sh",
                "ix": 1,
                "ks": {
                  "a": 0,
                  "k": {
                    "i": [
                      [0, 0],
                      [0, 0],
                      [0, 0],
                      [0, 0],
                      [0, 0],
                      [0, 0]
                    ],
                    "o": [
                      [0, 0],
                      [0, 0],
                      [0, 0],
                      [0, 0],
                      [0, 0],
                      [0, 0]
                    ],
                    "v": [
                      [8.359, 0],
                      [60.022, 0],
                      [60.022, -13.293],
                      [24.673, -13.293],
                      [24.673, -70.496],
                      [8.359, -70.496]
                    ],
                    "c": true
                  },
                  "ix": 2
                },
                "nm": "L",
                "mn": "ADBE Vector Shape - Group",
                "hd": false
              }
            ],
            "nm": "L",
            "np": 3,
            "cix": 2,
            "bm": 0,
            "ix": 1,
            "mn": "ADBE Vector Group",
            "hd": false
          }
        ]
      },
      "fFamily": "Montserrat"
    },
    {
      "ch": "I",
      "size": 80,
      "style": "Bold",
      "w": 32.8,
      "data": {
        "shapes": [
          {
            "ty": "gr",
            "it": [
              {
                "ind": 0,
                "ty": "sh",
                "ix": 1,
                "ks": {
                  "a": 0,
                  "k": {
                    "i": [
                      [0, 0],
                      [0, 0],
                      [0, 0],
                      [0, 0]
                    ],
                    "o": [
                      [0, 0],
                      [0, 0],
                      [0, 0],
                      [0, 0]
                    ],
                    "v": [
                      [8.359, 0],
                      [24.673, 0],
                      [24.673, -70.496],
                      [8.359, -70.496]
                    ],
                    "c": true
                  },
                  "ix": 2
                },
                "nm": "I",
                "mn": "ADBE Vector Shape - Group",
                "hd": false
              }
            ],
            "nm": "I",
            "np": 3,
            "cix": 2,
            "bm": 0,
            "ix": 1,
            "mn": "ADBE Vector Group",
            "hd": false
          }
        ]
      },
      "fFamily": "Montserrat"
    },
    {
      "ch": "V",
      "size": 80,
      "style": "Bold",
      "w": 74.6,
      "data": {
        "shapes": [
          {
            "ty": "gr",
            "it": [
              {
                "ind": 0,
                "ty": "sh",
                "ix": 1,
                "ks": {
                  "a": 0,
                  "k": {
                    "i": [
                      [0, 0],
                      [0, 0],
                      [0, 0],
                      [0, 0],
                      [0, 0],
                      [0, 0],
                      [0, 0]
                    ],
                    "o": [
                      [0, 0],
                      [0, 0],
                      [0, 0],
                      [0, 0],
                      [0, 0],
                      [0, 0],
                      [0, 0]
                    ],
                    "v": [
                      [59.921, -70.496],
                      [38.168, -20.142],
                      [16.718, -70.496],
                      [-0.906, -70.496],
                      [29.507, 0],
                      [45.621, 0],
                      [76.135, -70.496]
                    ],
                    "c": true
                  },
                  "ix": 2
                },
                "nm": "V",
                "mn": "ADBE Vector Shape - Group",
                "hd": false
              }
            ],
            "nm": "V",
            "np": 3,
            "cix": 2,
            "bm": 0,
            "ix": 1,
            "mn": "ADBE Vector Group",
            "hd": false
          }
        ]
      },
      "fFamily": "Montserrat"
    },
    {
      "ch": "E",
      "size": 80,
      "style": "Bold",
      "w": 67.1,
      "data": {
        "shapes": [
          {
            "ty": "gr",
            "it": [
              {
                "ind": 0,
                "ty": "sh",
                "ix": 1,
                "ks": {
                  "a": 0,
                  "k": {
                    "i": [
                      [0, 0],
                      [0, 0],
                      [0, 0],
                      [0, 0],
                      [0, 0],
                      [0, 0],
                      [0, 0],
                      [0, 0],
                      [0, 0],
                      [0, 0],
                      [0, 0],
                      [0, 0]
                    ],
                    "o": [
                      [0, 0],
                      [0, 0],
                      [0, 0],
                      [0, 0],
                      [0, 0],
                      [0, 0],
                      [0, 0],
                      [0, 0],
                      [0, 0],
                      [0, 0],
                      [0, 0],
                      [0, 0]
                    ],
                    "v": [
                      [24.573, -13.092],
                      [24.573, -29.407],
                      [57.303, -29.407],
                      [57.303, -42.096],
                      [24.573, -42.096],
                      [24.573, -57.404],
                      [61.633, -57.404],
                      [61.633, -70.496],
                      [8.359, -70.496],
                      [8.359, 0],
                      [62.943, 0],
                      [62.943, -13.092]
                    ],
                    "c": true
                  },
                  "ix": 2
                },
                "nm": "E",
                "mn": "ADBE Vector Shape - Group",
                "hd": false
              }
            ],
            "nm": "E",
            "np": 3,
            "cix": 2,
            "bm": 0,
            "ix": 1,
            "mn": "ADBE Vector Group",
            "hd": false
          }
        ]
      },
      "fFamily": "Montserrat"
    }
  ]
}
