{
  "v": "5.5.7",
  "fr": 60,
  "ip": 0,
  "op": 180,
  "w": 120,
  "h": 120,
  "nm": "Play",
  "ddd": 0,
  "assets": [],
  "layers": [
    {
      "ddd": 0,
      "ind": 1,
      "ty": 4,
      "nm": "Wave",
      "sr": 1,
      "ks": {
        "o": { "a": 0, "k": 100, "ix": 11 },
        "r": { "a": 0, "k": 0, "ix": 10 },
        "p": { "a": 0, "k": [60, 59.876, 0], "ix": 2 },
        "a": { "a": 0, "k": [0, -0.031, 0], "ix": 1 },
        "s": { "a": 0, "k": [400.00000000000006, 400.00000000000006, 100], "ix": 6 }
      },
      "ao": 0,
      "shapes": [
        {
          "ty": "gr",
          "it": [
            {
              "ind": 0,
              "ty": "sh",
              "ix": 1,
              "ks": {
                "a": 1,
                "k": [
                  {
                    "i": { "x": 0.667, "y": 1 },
                    "o": { "x": 0.333, "y": 0 },
                    "t": 100,
                    "s": [
                      {
                        "i": [
                          [0, 0],
                          [0, 0]
                        ],
                        "o": [
                          [0, 0],
                          [0, 0]
                        ],
                        "v": [
                          [-7.938, -0.062],
                          [-7.938, -0.062]
                        ],
                        "c": false
                      }
                    ]
                  },
                  {
                    "i": { "x": 0.667, "y": 1 },
                    "o": { "x": 0.333, "y": 0 },
                    "t": 120,
                    "s": [
                      {
                        "i": [
                          [0, 0],
                          [0, 0]
                        ],
                        "o": [
                          [0, 0],
                          [0, 0]
                        ],
                        "v": [
                          [-7.938, 6.938],
                          [-7.938, -7]
                        ],
                        "c": false
                      }
                    ]
                  },
                  {
                    "i": { "x": 0.667, "y": 1 },
                    "o": { "x": 0.333, "y": 0 },
                    "t": 140,
                    "s": [
                      {
                        "i": [
                          [0, 0],
                          [0, 0]
                        ],
                        "o": [
                          [0, 0],
                          [0, 0]
                        ],
                        "v": [
                          [-7.938, -0.062],
                          [-7.938, -0.062]
                        ],
                        "c": false
                      }
                    ]
                  },
                  {
                    "i": { "x": 0.488, "y": 1 },
                    "o": { "x": 0.167, "y": 0 },
                    "t": 160,
                    "s": [
                      {
                        "i": [
                          [0, 0],
                          [0, 0]
                        ],
                        "o": [
                          [0, 0],
                          [0, 0]
                        ],
                        "v": [
                          [-7.938, 6.938],
                          [-7.938, -7]
                        ],
                        "c": false
                      }
                    ]
                  },
                  {
                    "t": 180,
                    "s": [
                      {
                        "i": [
                          [0, 0],
                          [0, 0]
                        ],
                        "o": [
                          [0, 0],
                          [0, 0]
                        ],
                        "v": [
                          [-3.625, 5],
                          [-3.625, -5.062]
                        ],
                        "c": false
                      }
                    ]
                  }
                ],
                "ix": 2
              },
              "nm": "Path 1",
              "mn": "ADBE Vector Shape - Group",
              "hd": false
            },
            {
              "ind": 1,
              "ty": "sh",
              "ix": 2,
              "ks": {
                "a": 1,
                "k": [
                  {
                    "i": { "x": 0.667, "y": 1 },
                    "o": { "x": 0.333, "y": 0 },
                    "t": 105,
                    "s": [
                      {
                        "i": [
                          [0, 0],
                          [0, 0]
                        ],
                        "o": [
                          [0, 0],
                          [0, 0]
                        ],
                        "v": [
                          [-2.625, -0.062],
                          [-2.625, -0.062]
                        ],
                        "c": false
                      }
                    ]
                  },
                  {
                    "i": { "x": 0.667, "y": 1 },
                    "o": { "x": 0.333, "y": 0 },
                    "t": 125,
                    "s": [
                      {
                        "i": [
                          [0, 0],
                          [0, 0]
                        ],
                        "o": [
                          [0, 0],
                          [0, 0]
                        ],
                        "v": [
                          [-2.625, 6.938],
                          [-2.625, -7]
                        ],
                        "c": false
                      }
                    ]
                  },
                  {
                    "i": { "x": 0.833, "y": 0.831 },
                    "o": { "x": 0.333, "y": 0 },
                    "t": 145,
                    "s": [
                      {
                        "i": [
                          [0, 0],
                          [0, 0]
                        ],
                        "o": [
                          [0, 0],
                          [0, 0]
                        ],
                        "v": [
                          [-2.625, -0.062],
                          [-2.625, -0.062]
                        ],
                        "c": false
                      }
                    ]
                  },
                  {
                    "i": { "x": 0.488, "y": 1 },
                    "o": { "x": 0.637, "y": 0.646 },
                    "t": 160,
                    "s": [
                      {
                        "i": [
                          [0, 0],
                          [0, 0]
                        ],
                        "o": [
                          [0, 0],
                          [0, 0]
                        ],
                        "v": [
                          [-2.625, 5.844],
                          [-2.625, -5.916]
                        ],
                        "c": false
                      }
                    ]
                  },
                  {
                    "t": 180,
                    "s": [
                      {
                        "i": [
                          [0, 0],
                          [0, 0]
                        ],
                        "o": [
                          [0, 0],
                          [0, 0]
                        ],
                        "v": [
                          [0.062, 3.75],
                          [0.062, -3.812]
                        ],
                        "c": false
                      }
                    ]
                  }
                ],
                "ix": 2
              },
              "nm": "Path 2",
              "mn": "ADBE Vector Shape - Group",
              "hd": false
            },
            {
              "ind": 2,
              "ty": "sh",
              "ix": 3,
              "ks": {
                "a": 1,
                "k": [
                  {
                    "i": { "x": 0.667, "y": 1 },
                    "o": { "x": 0.333, "y": 0 },
                    "t": 110,
                    "s": [
                      {
                        "i": [
                          [0, 0],
                          [0, 0]
                        ],
                        "o": [
                          [0, 0],
                          [0, 0]
                        ],
                        "v": [
                          [2.625, -0.062],
                          [2.625, -0.062]
                        ],
                        "c": false
                      }
                    ]
                  },
                  {
                    "i": { "x": 0.667, "y": 1 },
                    "o": { "x": 0.333, "y": 0 },
                    "t": 130,
                    "s": [
                      {
                        "i": [
                          [0, 0],
                          [0, 0]
                        ],
                        "o": [
                          [0, 0],
                          [0, 0]
                        ],
                        "v": [
                          [2.625, 6.938],
                          [2.625, -7]
                        ],
                        "c": false
                      }
                    ]
                  },
                  {
                    "i": { "x": 0.833, "y": 0.831 },
                    "o": { "x": 0.333, "y": 0 },
                    "t": 150,
                    "s": [
                      {
                        "i": [
                          [0, 0],
                          [0, 0]
                        ],
                        "o": [
                          [0, 0],
                          [0, 0]
                        ],
                        "v": [
                          [2.625, -0.062],
                          [2.625, -0.062]
                        ],
                        "c": false
                      }
                    ]
                  },
                  {
                    "i": { "x": 0.488, "y": 1 },
                    "o": { "x": 0.637, "y": 0.646 },
                    "t": 160,
                    "s": [
                      {
                        "i": [
                          [0, 0],
                          [0, 0]
                        ],
                        "o": [
                          [0, 0],
                          [0, 0]
                        ],
                        "v": [
                          [2.625, 3.438],
                          [2.625, -3.531]
                        ],
                        "c": false
                      }
                    ]
                  },
                  {
                    "t": 180,
                    "s": [
                      {
                        "i": [
                          [0, 0],
                          [0, 0]
                        ],
                        "o": [
                          [0, 0],
                          [0, 0]
                        ],
                        "v": [
                          [2.75, 1.706],
                          [2.75, -1.665]
                        ],
                        "c": false
                      }
                    ]
                  }
                ],
                "ix": 2
              },
              "nm": "Path 3",
              "mn": "ADBE Vector Shape - Group",
              "hd": false
            },
            {
              "ind": 3,
              "ty": "sh",
              "ix": 4,
              "ks": {
                "a": 1,
                "k": [
                  {
                    "i": { "x": 0.667, "y": 1 },
                    "o": { "x": 0.333, "y": 0 },
                    "t": 115,
                    "s": [
                      {
                        "i": [
                          [0, 0],
                          [0, 0]
                        ],
                        "o": [
                          [0, 0],
                          [0, 0]
                        ],
                        "v": [
                          [7.875, -0.062],
                          [7.875, -0.062]
                        ],
                        "c": false
                      }
                    ]
                  },
                  {
                    "i": { "x": 0.667, "y": 1 },
                    "o": { "x": 0.333, "y": 0 },
                    "t": 135,
                    "s": [
                      {
                        "i": [
                          [0, 0],
                          [0, 0]
                        ],
                        "o": [
                          [0, 0],
                          [0, 0]
                        ],
                        "v": [
                          [7.875, 6.938],
                          [7.875, -7]
                        ],
                        "c": false
                      }
                    ]
                  },
                  {
                    "i": { "x": 0.833, "y": 0.831 },
                    "o": { "x": 0.333, "y": 0 },
                    "t": 155,
                    "s": [
                      {
                        "i": [
                          [0, 0],
                          [0, 0]
                        ],
                        "o": [
                          [0, 0],
                          [0, 0]
                        ],
                        "v": [
                          [7.875, -0.062],
                          [7.875, -0.062]
                        ],
                        "c": false
                      }
                    ]
                  },
                  {
                    "i": { "x": 0.488, "y": 1 },
                    "o": { "x": 0.637, "y": 0.646 },
                    "t": 160,
                    "s": [
                      {
                        "i": [
                          [0, 0],
                          [0, 0]
                        ],
                        "o": [
                          [0, 0],
                          [0, 0]
                        ],
                        "v": [
                          [7.875, 1.031],
                          [7.875, -1.146]
                        ],
                        "c": false
                      }
                    ]
                  },
                  {
                    "t": 180,
                    "s": [
                      {
                        "i": [
                          [0, 0],
                          [0, 0]
                        ],
                        "o": [
                          [0, 0],
                          [0, 0]
                        ],
                        "v": [
                          [6.121, -0.057],
                          [6.121, -0.057]
                        ],
                        "c": false
                      }
                    ]
                  }
                ],
                "ix": 2
              },
              "nm": "Path 4",
              "mn": "ADBE Vector Shape - Group",
              "hd": false
            },
            {
              "ty": "st",
              "c": {
                "a": 0,
                "k": [0.9607843137254902, 0.37254901960784315, 0.37254901960784315, 1],
                "ix": 3
              },
              "o": { "a": 0, "k": 100, "ix": 4 },
              "w": {
                "a": 1,
                "k": [
                  {
                    "i": { "x": [0], "y": [1] },
                    "o": { "x": [0.148], "y": [0] },
                    "t": 80,
                    "s": [0]
                  },
                  {
                    "i": { "x": [0.833], "y": [1] },
                    "o": { "x": [0.167], "y": [0] },
                    "t": 100,
                    "s": [3.5]
                  },
                  {
                    "i": { "x": [0.488], "y": [1.022] },
                    "o": { "x": [0.659], "y": [-0.028] },
                    "t": 160,
                    "s": [3.5]
                  },
                  { "t": 180, "s": [4] }
                ],
                "ix": 5
              },
              "lc": 2,
              "lj": 1,
              "ml": 4,
              "bm": 0,
              "nm": "Stroke 1",
              "mn": "ADBE Vector Graphic - Stroke",
              "hd": false
            },
            {
              "ty": "tr",
              "p": { "a": 0, "k": [0, 0], "ix": 2 },
              "a": { "a": 0, "k": [0, 0], "ix": 1 },
              "s": { "a": 0, "k": [100, 100], "ix": 3 },
              "r": { "a": 0, "k": 0, "ix": 6 },
              "o": { "a": 0, "k": 100, "ix": 7 },
              "sk": { "a": 0, "k": 0, "ix": 4 },
              "sa": { "a": 0, "k": 0, "ix": 5 },
              "nm": "Transform"
            }
          ],
          "nm": "Wave",
          "np": 5,
          "cix": 2,
          "bm": 0,
          "ix": 1,
          "mn": "ADBE Vector Group",
          "hd": false
        }
      ],
      "ip": 83,
      "op": 422,
      "st": 80,
      "bm": 0
    },
    {
      "ddd": 0,
      "ind": 2,
      "ty": 4,
      "nm": "Play 2",
      "sr": 1,
      "ks": {
        "o": { "a": 0, "k": 100, "ix": 11 },
        "r": { "a": 0, "k": 0, "ix": 10 },
        "p": { "a": 0, "k": [68.00000000000001, 60, 0], "ix": 2 },
        "a": { "a": 0, "k": [-0.002, 0, 0], "ix": 1 },
        "s": {
          "a": 1,
          "k": [
            {
              "i": { "x": [0.133, 0.133, 0.667], "y": [1, 1, 1] },
              "o": { "x": [0.956, 0.956, 0.333], "y": [0, 0, 0] },
              "t": 160,
              "s": [0, 0, 100]
            },
            { "t": 190, "s": [400.00000000000006, 400.00000000000006, 100] }
          ],
          "ix": 6
        }
      },
      "ao": 0,
      "shapes": [
        {
          "ind": 0,
          "ty": "sh",
          "ix": 1,
          "ks": {
            "a": 0,
            "k": {
              "i": [
                [0, 0],
                [-1.59, 0.8],
                [0, 0],
                [0, 0.8],
                [0.69, 0.38],
                [0, 0],
                [0.04, -1.67]
              ],
              "o": [
                [0.04, 1.68],
                [0, 0],
                [0.69, -0.37],
                [0, -0.81],
                [0, 0],
                [-1.59, -0.8],
                [0, 0]
              ],
              "v": [
                [-8.692, 6.83],
                [-5.252, 8.72],
                [7.528, 1.86],
                [8.688, 0],
                [7.528, -1.87],
                [-5.252, -8.72],
                [-8.692, -6.84]
              ],
              "c": true
            },
            "ix": 2
          },
          "nm": "Path 1",
          "mn": "ADBE Vector Shape - Group",
          "hd": false
        },
        {
          "ty": "fl",
          "c": {
            "a": 0,
            "k": [0.9607843137254902, 0.37254901960784315, 0.37254901960784315, 1],
            "ix": 4
          },
          "o": { "a": 0, "k": 100, "ix": 5 },
          "r": 1,
          "bm": 0,
          "nm": "Fill 1",
          "mn": "ADBE Vector Graphic - Fill",
          "hd": false
        }
      ],
      "ip": 152,
      "op": 266,
      "st": 150,
      "bm": 0
    },
    {
      "ddd": 0,
      "ind": 3,
      "ty": 4,
      "nm": "Spinner",
      "sr": 1,
      "ks": {
        "o": { "a": 0, "k": 100, "ix": 11 },
        "r": {
          "a": 1,
          "k": [
            {
              "i": { "x": [0.833], "y": [0.833] },
              "o": { "x": [0.167], "y": [0.167] },
              "t": 40,
              "s": [0]
            },
            {
              "i": { "x": [0.833], "y": [0.833] },
              "o": { "x": [0.167], "y": [0.167] },
              "t": 60,
              "s": [-360]
            },
            {
              "i": { "x": [0.833], "y": [0.833] },
              "o": { "x": [0.167], "y": [0.167] },
              "t": 80,
              "s": [-720]
            },
            { "t": 100, "s": [-1125] }
          ],
          "ix": 10
        },
        "p": { "a": 0, "k": [60, 60, 0], "ix": 2 },
        "a": { "a": 0, "k": [0, 0, 0], "ix": 1 },
        "s": { "a": 0, "k": [400.00000000000006, 400.00000000000006, 100], "ix": 6 }
      },
      "ao": 0,
      "shapes": [
        {
          "ind": 0,
          "ty": "sh",
          "ix": 1,
          "ks": {
            "a": 0,
            "k": {
              "i": [
                [0, 0],
                [0, 4.42],
                [4.42, 0],
                [0, -4.42]
              ],
              "o": [
                [4.42, 0],
                [0, -4.42],
                [-4.42, 0],
                [0, 0]
              ],
              "v": [
                [0, 8],
                [8, 0],
                [0, -8],
                [-8, 0]
              ],
              "c": false
            },
            "ix": 2
          },
          "nm": "Path 1",
          "mn": "ADBE Vector Shape - Group",
          "hd": false
        },
        {
          "ty": "tm",
          "s": {
            "a": 1,
            "k": [
              {
                "i": { "x": [0.833], "y": [0.833] },
                "o": { "x": [0.167], "y": [0.167] },
                "t": 90,
                "s": [0]
              },
              { "t": 110, "s": [85] }
            ],
            "ix": 1
          },
          "e": {
            "a": 1,
            "k": [
              {
                "i": { "x": [0.833], "y": [0.833] },
                "o": { "x": [0.167], "y": [0.167] },
                "t": 40,
                "s": [0]
              },
              { "t": 60, "s": [85] }
            ],
            "ix": 2
          },
          "o": { "a": 0, "k": 0, "ix": 3 },
          "m": 1,
          "ix": 2,
          "nm": "Trim Paths 1",
          "mn": "ADBE Vector Filter - Trim",
          "hd": false
        },
        {
          "ty": "st",
          "c": {
            "a": 0,
            "k": [0.9607843137254902, 0.37254901960784315, 0.37254901960784315, 1],
            "ix": 3
          },
          "o": { "a": 0, "k": 100, "ix": 4 },
          "w": { "a": 0, "k": 3.5, "ix": 5 },
          "lc": 2,
          "lj": 1,
          "ml": 4,
          "bm": 0,
          "nm": "Stroke 1",
          "mn": "ADBE Vector Graphic - Stroke",
          "hd": false
        }
      ],
      "ip": 40,
      "op": 111,
      "st": 40,
      "bm": 0
    },
    {
      "ddd": 0,
      "ind": 4,
      "ty": 4,
      "nm": "Play",
      "sr": 1,
      "ks": {
        "o": { "a": 0, "k": 100, "ix": 11 },
        "r": { "a": 0, "k": 0, "ix": 10 },
        "p": {
          "a": 1,
          "k": [
            {
              "i": { "x": 0.08, "y": 1 },
              "o": { "x": 0.131, "y": 0 },
              "t": 0,
              "s": [61.488, 58.623999999999995, 0],
              "to": [0, 0, 0],
              "ti": [0.135, 2.868, 0]
            },
            {
              "i": { "x": 0.896, "y": 1 },
              "o": { "x": 1, "y": 0 },
              "t": 20,
              "s": [59.988, 32.12400000000001, 0],
              "to": [-14.56, -4.156, 0],
              "ti": [-14.497, 4.156, 0]
            },
            { "t": 40, "s": [60.488, 92.124, 0] }
          ],
          "ix": 2
        },
        "a": { "a": 0, "k": [-1.63, -0.344, 0], "ix": 1 },
        "s": { "a": 0, "k": [400.00000000000006, 400.00000000000006, 100], "ix": 6 }
      },
      "ao": 0,
      "shapes": [
        {
          "ind": 0,
          "ty": "sh",
          "ix": 1,
          "ks": {
            "a": 1,
            "k": [
              {
                "i": { "x": 0, "y": 1 },
                "o": { "x": 0.393, "y": 0 },
                "t": 0,
                "s": [
                  {
                    "i": [
                      [0, 0],
                      [-1.59, 0.8],
                      [0, 0],
                      [0, 0.8],
                      [0.69, 0.38],
                      [0, 0],
                      [0.04, -1.67]
                    ],
                    "o": [
                      [0.04, 1.68],
                      [0, 0],
                      [0.69, -0.37],
                      [0, -0.81],
                      [0, 0],
                      [-1.59, -0.8],
                      [0, 0]
                    ],
                    "v": [
                      [-8.692, 6.83],
                      [-5.252, 8.72],
                      [7.528, 1.86],
                      [8.688, 0],
                      [7.528, -1.87],
                      [-5.252, -8.72],
                      [-8.692, -6.84]
                    ],
                    "c": true
                  }
                ]
              },
              {
                "i": { "x": 0.833, "y": 1 },
                "o": { "x": 0.43, "y": 0 },
                "t": 20,
                "s": [
                  {
                    "i": [
                      [-0.381, -0.417],
                      [-0.658, 0],
                      [-0.317, 0.687],
                      [0, 0.299],
                      [0.078, 0.213],
                      [0.864, 0],
                      [0.382, -0.481]
                    ],
                    "o": [
                      [0.412, 0.451],
                      [0.806, 0],
                      [0.117, -0.255],
                      [0, -0.24],
                      [-0.279, -0.768],
                      [-0.662, 0],
                      [-0.593, 0.748]
                    ],
                    "v": [
                      [-3.208, 1.018],
                      [-1.65, 1.656],
                      [0.167, 0.493],
                      [0.35, -0.344],
                      [0.23, -1.027],
                      [-1.65, -2.344],
                      [-3.262, -1.528]
                    ],
                    "c": true
                  }
                ]
              },
              {
                "t": 40,
                "s": [
                  {
                    "i": [
                      [-0.268, -0.293],
                      [-0.463, 0],
                      [-0.223, 0.483],
                      [0, 0.21],
                      [0.055, 0.15],
                      [0.608, 0],
                      [0.269, -0.338]
                    ],
                    "o": [
                      [0.29, 0.317],
                      [0.567, 0],
                      [0.083, -0.179],
                      [0, -0.169],
                      [-0.196, -0.54],
                      [-0.465, 0],
                      [-0.417, 0.526]
                    ],
                    "v": [
                      [-2.776, 0.614],
                      [-1.681, 1.062],
                      [-0.403, 0.245],
                      [-0.274, -0.344],
                      [-0.359, -0.825],
                      [-1.681, -1.75],
                      [-2.814, -1.176]
                    ],
                    "c": true
                  }
                ]
              }
            ],
            "ix": 2
          },
          "nm": "Path 1",
          "mn": "ADBE Vector Shape - Group",
          "hd": false
        },
        {
          "ty": "fl",
          "c": {
            "a": 0,
            "k": [0.9607843137254902, 0.37254901960784315, 0.37254901960784315, 1],
            "ix": 4
          },
          "o": { "a": 0, "k": 100, "ix": 5 },
          "r": 1,
          "bm": 0,
          "nm": "Fill 1",
          "mn": "ADBE Vector Graphic - Fill",
          "hd": false
        }
      ],
      "ip": 0,
      "op": 41,
      "st": 0,
      "bm": 0
    }
  ],
  "markers": [
    { "tm": 60, "cm": "Spin Loop\r", "dr": 0 },
    { "tm": 80, "cm": "Spin End\r", "dr": 0 },
    { "tm": 120, "cm": "Wave loop\r", "dr": 0 },
    { "tm": 160, "cm": "Wave End\r", "dr": 0 }
  ]
}
